Messy.Cats Introduction
…
cat_match(messy_caterpillars$CaterpillarSpecies,clean_caterpillars$species,return_dists = T,method="jaccard") %>% arrange(desc(dists))

messy_caterpillars$CaterpillarSpecies = cat_replace(messy_caterpillars$CaterpillarSpecies,clean_caterpillars$species,method="jaccard", threshold = .49)

dplyr::left_join(clean_caterpillars,messy_caterpillars, by = c("species"="CaterpillarSpecies"))

Alternatively, a user could accomplish this task in one step using
cat_join().

data("clean_caterpillars")
data("messy_caterpillars")

cat_join(messy_df = messy_caterpillars, clean_df = clean_caterpillars, by = c("CaterpillarSpecies", "species"), method="jaccard", threshold = .49,join="full")
#> # A tibble: 75 × 5
#>    species                `Avg Weight (mg)` `Avg Length (cm)` count  year
#>    <chr>                              <dbl>             <dbl> <int> <dbl>
#>  1 Achatia distincta                  0.809              2.64    24  2021
#>  2 Achatia distincta                  0.809              2.64    14  2020
#>  3 Achatia distincta                  0.809              2.64    16  2019
#>  4 Alsophila pometaria                2.03               1.73     8  2021
#>  5 Alsophila pometaria                2.03               1.73    18  2020
#>  6 Alsophila pometaria                2.03               1.73    11  2019
#>  7 Amphipyra pyramidoides             0.914              1.76    26  2021
#>  8 Amphipyra pyramidoides             0.914              1.76    26  2020
#>  9 Amphipyra pyramidoides             0.914              1.76     9  2019
#> 10 Himella intractata                 1.53               2.54     3  2021
#> # … with 65 more rows
…
